…
Let's practice through a more complex data frame.

```julia
dates = repeat(dates_simple, inner = 5)
names = repeat(names_simple, outer = 5)
properties = repeat(properties_simple, outer = 5)
values = 10 * rand(25)
df = DataFrame(:Date => dates, :Name => names, :Property => properties, :Value => values)
```

```bash
julia> df

25×4 DataFrame
 Row │ Date        Name    Property   Value    
     │ Date        String  String     Float64  
─────┼─────────────────────────────────────────
   1 │ 2021-01-01  John    Awesome    4.96169
   2 │ 2021-01-01  Mike    Amazing    7.32
   3 │ 2021-01-01  Tom     Excellent  2.99058
   4 │ 2021-01-01  David   Wonderful  4.49182
   5 │ 2021-01-01  Joshua  Awful      8.75096
   6 │ 2021-01-02  John    Awesome    0.462887
   7 │ 2021-01-02  Mike    Amazing    6.98356
   8 │ 2021-01-02  Tom     Excellent  3.65109
  ⋮  │     ⋮         ⋮         ⋮         ⋮
  19 │ 2021-01-04  David   Wonderful  5.9552
  20 │ 2021-01-04  Joshua  Awful      2.92462
  21 │ 2021-01-05  John    Awesome    2.8858
  22 │ 2021-01-05  Mike    Amazing    6.1816
  23 │ 2021-01-05  Tom     Excellent  6.6426
  24 │ 2021-01-05  David   Wonderful  7.53508
  25 │ 2021-01-05  Joshua  Awful      0.368842
                                10 rows omitted
```
…
