…
Let's look at a simple example. 

```julia
using DataFrames
a = repeat('a':'z')
b = repeat(14:26, outer = 2)
df = DataFrame(:A => a, :B => b)
```

```bash
julia> df

26×2 DataFrame
 Row │ A     B     
     │ Char  Int64 
─────┼─────────────
   1 │ a        14
   2 │ b        15
   3 │ c        16
   4 │ d        17
   5 │ e        18
   6 │ f        19
   7 │ g        20
   8 │ h        21
  ⋮  │  ⋮      ⋮
  20 │ t        20
  21 │ u        21
  22 │ v        22
  23 │ w        23
  24 │ x        24
  25 │ y        25
  26 │ z        26
    11 rows omitted
```
…
